#-----------------------------------------------------------------------
# JWare software build information.
# Copyright (c) 2002-2012 Sandbox Software MC. All Rights Reserved.
#-----------------------------------------------------------------------
Release: JWare AntXtras/Foundation 3.5.0b1, Jul-28-2012
Build Id: 3.5.0b1-build1389.34
Build Time: 20120728T153554-0400
Builder: ssmc
